####
#
# OBJ File Generated by Meshlab
#
####
# Object tube-uv.obj
#
# Vertices: 120
# Faces: 120
#
####
mtllib ./tube-uv.obj.mtl

vn 0.017466 0.000000 -0.999847
v 0.000000 -1.200000 -0.475000 0.752941 0.752941 0.752941
vn -0.017465 0.000000 -0.999847
v 0.000000 1.200000 -0.475000 0.752941 0.752941 0.752941
vn 0.121886 0.000000 -0.992544
v 0.049651 -1.200000 -0.472398 0.752941 0.752941 0.752941
vn 0.087142 0.000000 -0.996196
v 0.049651 1.200000 -0.472398 0.752941 0.752941 0.752941
vn 0.224963 0.000000 -0.974367
v 0.098758 -1.200000 -0.464620 0.752941 0.752941 0.752941
vn 0.190796 0.000000 -0.981630
v 0.098758 1.200000 -0.464620 0.752941 0.752941 0.752941
vn 0.325582 0.000000 -0.945514
v 0.146783 -1.200000 -0.451752 0.752941 0.752941 0.752941
vn 0.292356 0.000000 -0.956310
v 0.146783 1.200000 -0.451752 0.752941 0.752941 0.752941
vn 0.422632 0.000000 -0.906301
v 0.193200 -1.200000 -0.433934 0.752941 0.752941 0.752941
vn 0.390720 0.000000 -0.920509
v 0.193200 1.200000 -0.433934 0.752941 0.752941 0.752941
vn 0.515050 0.000000 -0.857160
v 0.237500 -1.200000 -0.411362 0.752941 0.752941 0.752941
vn 0.484798 0.000000 -0.874626
v 0.237500 1.200000 -0.411362 0.752941 0.752941 0.752941
vn 0.601824 0.000000 -0.798629
v 0.279198 -1.200000 -0.384283 0.752941 0.752941 0.752941
vn 0.573564 0.000000 -0.819161
v 0.279198 1.200000 -0.384283 0.752941 0.752941 0.752941
vn 0.682008 0.000000 -0.731345
v 0.317837 -1.200000 -0.352994 0.752941 0.752941 0.752941
vn 0.656047 0.000000 -0.754720
v 0.317837 1.200000 -0.352994 0.752941 0.752941 0.752941
vn 0.754720 0.000000 -0.656047
v 0.352994 -1.200000 -0.317837 0.752941 0.752941 0.752941
vn 0.731345 0.000000 -0.682008
v 0.352994 1.200000 -0.317837 0.752941 0.752941 0.752941
vn 0.819161 0.000000 -0.573564
v 0.384283 -1.200000 -0.279198 0.752941 0.752941 0.752941
vn 0.798629 0.000000 -0.601824
v 0.384283 1.200000 -0.279198 0.752941 0.752941 0.752941
vn 0.874626 0.000000 -0.484798
v 0.411362 -1.200000 -0.237500 0.752941 0.752941 0.752941
vn 0.857160 0.000000 -0.515050
v 0.411362 1.200000 -0.237500 0.752941 0.752941 0.752941
vn 0.920509 0.000000 -0.390720
v 0.433934 -1.200000 -0.193200 0.752941 0.752941 0.752941
vn 0.906301 0.000000 -0.422632
v 0.433934 1.200000 -0.193200 0.752941 0.752941 0.752941
vn 0.956310 0.000000 -0.292356
v 0.451752 -1.200000 -0.146783 0.752941 0.752941 0.752941
vn 0.945514 0.000000 -0.325582
v 0.451752 1.200000 -0.146783 0.752941 0.752941 0.752941
vn 0.981630 0.000000 -0.190796
v 0.464620 -1.200000 -0.098758 0.752941 0.752941 0.752941
vn 0.974367 0.000000 -0.224963
v 0.464620 1.200000 -0.098758 0.752941 0.752941 0.752941
vn 0.996196 0.000000 -0.087142
v 0.472398 -1.200000 -0.049651 0.752941 0.752941 0.752941
vn 0.992544 0.000000 -0.121886
v 0.472398 1.200000 -0.049651 0.752941 0.752941 0.752941
vn 0.999847 0.000000 0.017466
v 0.475000 -1.200000 0.000000 0.752941 0.752941 0.752941
vn 0.999847 0.000000 -0.017466
v 0.475000 1.200000 0.000000 0.752941 0.752941 0.752941
vn 0.992544 0.000000 0.121886
v 0.472398 -1.200000 0.049651 0.752941 0.752941 0.752941
vn 0.996196 0.000000 0.087142
v 0.472398 1.200000 0.049651 0.752941 0.752941 0.752941
vn 0.974367 0.000000 0.224963
v 0.464620 -1.200000 0.098758 0.752941 0.752941 0.752941
vn 0.981630 0.000000 0.190796
v 0.464620 1.200000 0.098758 0.752941 0.752941 0.752941
vn 0.945514 0.000000 0.325582
v 0.451752 -1.200000 0.146783 0.752941 0.752941 0.752941
vn 0.956310 0.000000 0.292356
v 0.451752 1.200000 0.146783 0.752941 0.752941 0.752941
vn 0.906301 0.000000 0.422632
v 0.433934 -1.200000 0.193200 0.752941 0.752941 0.752941
vn 0.920509 0.000000 0.390720
v 0.433934 1.200000 0.193200 0.752941 0.752941 0.752941
vn 0.857160 0.000000 0.515050
v 0.411362 -1.200000 0.237500 0.752941 0.752941 0.752941
vn 0.874626 0.000000 0.484798
v 0.411362 1.200000 0.237500 0.752941 0.752941 0.752941
vn 0.798629 0.000000 0.601824
v 0.384283 -1.200000 0.279198 0.752941 0.752941 0.752941
vn 0.819161 0.000000 0.573564
v 0.384283 1.200000 0.279198 0.752941 0.752941 0.752941
vn 0.731345 0.000000 0.682008
v 0.352994 -1.200000 0.317837 0.752941 0.752941 0.752941
vn 0.754720 0.000000 0.656047
v 0.352994 1.200000 0.317837 0.752941 0.752941 0.752941
vn 0.656047 0.000000 0.754720
v 0.317837 -1.200000 0.352994 0.752941 0.752941 0.752941
vn 0.682008 0.000000 0.731345
v 0.317837 1.200000 0.352994 0.752941 0.752941 0.752941
vn 0.573564 0.000000 0.819161
v 0.279198 -1.200000 0.384283 0.752941 0.752941 0.752941
vn 0.601824 0.000000 0.798629
v 0.279198 1.200000 0.384283 0.752941 0.752941 0.752941
vn 0.484798 0.000000 0.874626
v 0.237500 -1.200000 0.411362 0.752941 0.752941 0.752941
vn 0.515050 0.000000 0.857160
v 0.237500 1.200000 0.411362 0.752941 0.752941 0.752941
vn 0.390720 0.000000 0.920509
v 0.193200 -1.200000 0.433934 0.752941 0.752941 0.752941
vn 0.422632 0.000000 0.906301
v 0.193200 1.200000 0.433934 0.752941 0.752941 0.752941
vn 0.292356 0.000000 0.956310
v 0.146783 -1.200000 0.451752 0.752941 0.752941 0.752941
vn 0.325582 0.000000 0.945514
v 0.146783 1.200000 0.451752 0.752941 0.752941 0.752941
vn 0.190796 0.000000 0.981630
v 0.098758 -1.200000 0.464620 0.752941 0.752941 0.752941
vn 0.224963 0.000000 0.974367
v 0.098758 1.200000 0.464620 0.752941 0.752941 0.752941
vn 0.087143 0.000000 0.996196
v 0.049651 -1.200000 0.472398 0.752941 0.752941 0.752941
vn 0.121887 0.000000 0.992544
v 0.049651 1.200000 0.472398 0.752941 0.752941 0.752941
vn -0.017466 0.000000 0.999847
v 0.000001 -1.200000 0.475000 0.752941 0.752941 0.752941
vn 0.017466 0.000000 0.999847
v 0.000001 1.200000 0.475000 0.752941 0.752941 0.752941
vn -0.121886 0.000000 0.992544
v -0.049650 -1.200000 0.472398 0.752941 0.752941 0.752941
vn -0.087142 0.000000 0.996196
v -0.049650 1.200000 0.472398 0.752941 0.752941 0.752941
vn -0.224963 0.000000 0.974367
v -0.098757 -1.200000 0.464620 0.752941 0.752941 0.752941
vn -0.190796 0.000000 0.981630
v -0.098757 1.200000 0.464620 0.752941 0.752941 0.752941
vn -0.325582 0.000000 0.945514
v -0.146782 -1.200000 0.451752 0.752941 0.752941 0.752941
vn -0.292356 0.000000 0.956309
v -0.146782 1.200000 0.451752 0.752941 0.752941 0.752941
vn -0.422632 0.000000 0.906301
v -0.193199 -1.200000 0.433934 0.752941 0.752941 0.752941
vn -0.390720 0.000000 0.920509
v -0.193199 1.200000 0.433934 0.752941 0.752941 0.752941
vn -0.515041 0.000000 0.857166
v -0.237499 -1.200000 0.411362 0.752941 0.752941 0.752941
vn -0.484792 0.000000 0.874629
v -0.237499 1.200000 0.411362 0.752941 0.752941 0.752941
vn -0.601829 0.000000 0.798625
v -0.279197 -1.200000 0.384284 0.752941 0.752941 0.752941
vn -0.573559 0.000000 0.819164
v -0.279197 1.200000 0.384284 0.752941 0.752941 0.752941
vn -0.682004 0.000000 0.731348
v -0.317836 -1.200000 0.352994 0.752941 0.752941 0.752941
vn -0.656050 0.000000 0.754717
v -0.317836 1.200000 0.352994 0.752941 0.752941 0.752941
vn -0.754718 0.000000 0.656050
v -0.352993 -1.200000 0.317838 0.752941 0.752941 0.752941
vn -0.731338 0.000000 0.682015
v -0.352993 1.200000 0.317838 0.752941 0.752941 0.752941
vn -0.819155 0.000000 0.573573
v -0.384282 -1.200000 0.279199 0.752941 0.752941 0.752941
vn -0.798625 0.000000 0.601828
v -0.384282 1.200000 0.279199 0.752941 0.752941 0.752941
vn -0.874624 0.000000 0.484803
v -0.411362 -1.200000 0.237501 0.752941 0.752941 0.752941
vn -0.857154 0.000000 0.515060
v -0.411362 1.200000 0.237501 0.752941 0.752941 0.752941
vn -0.920514 0.000000 0.390709
v -0.433934 -1.200000 0.193201 0.752941 0.752941 0.752941
vn -0.906304 0.000000 0.422627
v -0.433934 1.200000 0.193201 0.752941 0.752941 0.752941
vn -0.956308 0.000000 0.292362
v -0.451751 -1.200000 0.146784 0.752941 0.752941 0.752941
vn -0.945516 0.000000 0.325576
v -0.451751 1.200000 0.146784 0.752941 0.752941 0.752941
vn -0.981628 0.000000 0.190803
v -0.464620 -1.200000 0.098759 0.752941 0.752941 0.752941
vn -0.974364 0.000000 0.224976
v -0.464620 1.200000 0.098759 0.752941 0.752941 0.752941
vn -0.996196 0.000000 0.087142
v -0.472398 -1.200000 0.049652 0.752941 0.752941 0.752941
vn -0.992544 0.000000 0.121886
v -0.472398 1.200000 0.049652 0.752941 0.752941 0.752941
vn -0.999847 0.000000 -0.017466
v -0.475000 -1.200000 0.000001 0.752941 0.752941 0.752941
vn -0.999847 0.000000 0.017466
v -0.475000 1.200000 0.000001 0.752941 0.752941 0.752941
vn -0.992544 0.000000 -0.121886
v -0.472398 -1.200000 -0.049650 0.752941 0.752941 0.752941
vn -0.996196 0.000000 -0.087142
v -0.472398 1.200000 -0.049650 0.752941 0.752941 0.752941
vn -0.974367 0.000000 -0.224963
v -0.464620 -1.200000 -0.098757 0.752941 0.752941 0.752941
vn -0.981630 0.000000 -0.190796
v -0.464620 1.200000 -0.098757 0.752941 0.752941 0.752941
vn -0.945516 0.000000 -0.325575
v -0.451752 -1.200000 -0.146782 0.752941 0.752941 0.752941
vn -0.956311 0.000000 -0.292352
v -0.451752 1.200000 -0.146782 0.752941 0.752941 0.752941
vn -0.906305 0.000000 -0.422624
v -0.433935 -1.200000 -0.193198 0.752941 0.752941 0.752941
vn -0.920513 0.000000 -0.390711
v -0.433935 1.200000 -0.193198 0.752941 0.752941 0.752941
vn -0.857162 0.000000 -0.515047
v -0.411363 -1.200000 -0.237499 0.752941 0.752941 0.752941
vn -0.874630 0.000000 -0.484792
v -0.411363 1.200000 -0.237499 0.752941 0.752941 0.752941
vn -0.798629 0.000000 -0.601824
v -0.384284 -1.200000 -0.279197 0.752941 0.752941 0.752941
vn -0.819161 0.000000 -0.573564
v -0.384284 1.200000 -0.279197 0.752941 0.752941 0.752941
vn -0.731345 0.000000 -0.682008
v -0.352995 -1.200000 -0.317836 0.752941 0.752941 0.752941
vn -0.754720 0.000000 -0.656046
v -0.352995 1.200000 -0.317836 0.752941 0.752941 0.752941
vn -0.656047 0.000000 -0.754720
v -0.317838 -1.200000 -0.352993 0.752941 0.752941 0.752941
vn -0.682008 0.000000 -0.731345
v -0.317838 1.200000 -0.352993 0.752941 0.752941 0.752941
vn -0.573570 0.000000 -0.819157
v -0.279199 -1.200000 -0.384282 0.752941 0.752941 0.752941
vn -0.601827 0.000000 -0.798626
v -0.279199 1.200000 -0.384282 0.752941 0.752941 0.752941
vn -0.484800 0.000000 -0.874625
v -0.237502 -1.200000 -0.411361 0.752941 0.752941 0.752941
vn -0.515056 0.000000 -0.857156
v -0.237502 1.200000 -0.411361 0.752941 0.752941 0.752941
vn -0.390720 0.000000 -0.920510
v -0.193202 -1.200000 -0.433933 0.752941 0.752941 0.752941
vn -0.422632 0.000000 -0.906301
v -0.193202 1.200000 -0.433933 0.752941 0.752941 0.752941
vn -0.292368 0.000000 -0.956306
v -0.146785 -1.200000 -0.451751 0.752941 0.752941 0.752941
vn -0.325588 0.000000 -0.945512
v -0.146785 1.200000 -0.451751 0.752941 0.752941 0.752941
vn -0.190803 0.000000 -0.981628
v -0.098760 -1.200000 -0.464620 0.752941 0.752941 0.752941
vn -0.224976 0.000000 -0.974364
v -0.098760 1.200000 -0.464620 0.752941 0.752941 0.752941
vn -0.087139 0.000000 -0.996196
v -0.049653 -1.200000 -0.472398 0.752941 0.752941 0.752941
vn -0.121884 0.000000 -0.992544
v -0.049653 1.200000 -0.472398 0.752941 0.752941 0.752941
# 120 vertices, 0 vertices normals


usemtl material_0
vt 0.948567 -0.000561
vt 0.948567 0.998070
vt 0.933615 0.998070
f 1/1/1 2/2/2 4/3/4
vt 0.933615 -0.000561
f 1/1/1 4/3/4 3/4/3
vt 0.918663 0.998070
f 3/4/3 4/3/4 6/5/6
vt 0.918662 -0.000561
f 3/4/3 6/5/6 5/6/5
vt 0.903712 0.998070
f 5/6/5 6/5/6 8/7/8
vt 0.903710 -0.000561
f 5/6/5 8/7/8 7/8/7
vt 0.888760 0.998070
f 7/8/7 8/7/8 10/9/10
vt 0.888758 -0.000561
f 7/8/7 10/9/10 9/10/9
vt 0.873808 0.998070
f 9/10/9 10/9/10 12/11/12
vt 0.873806 -0.000561
f 9/10/9 12/11/12 11/12/11
vt 0.858856 0.998070
f 11/12/11 12/11/12 14/13/14
vt 0.858854 -0.000561
f 11/12/11 14/13/14 13/14/13
vt 0.843904 0.998071
f 13/14/13 14/13/14 16/15/16
vt 0.843901 -0.000561
f 13/14/13 16/15/16 15/16/15
vt 0.828953 0.998071
f 15/16/15 16/15/16 18/17/18
vt 0.828949 -0.000561
f 15/16/15 18/17/18 17/18/17
vt 0.814001 0.998071
f 17/18/17 18/17/18 20/19/20
vt 0.813997 -0.000560
f 17/18/17 20/19/20 19/20/19
vt 0.799049 0.998071
f 19/20/19 20/19/20 22/21/22
vt 0.799045 -0.000560
f 19/20/19 22/21/22 21/22/21
vt 0.784097 0.998071
f 21/22/21 22/21/22 24/23/24
vt 0.784093 -0.000560
f 21/22/21 24/23/24 23/24/23
vt 0.769145 0.998072
f 23/24/23 24/23/24 26/25/26
vt 0.769140 -0.000560
f 23/24/23 26/25/26 25/26/25
vt 0.754193 0.998072
f 25/26/25 26/25/26 28/27/28
vt 0.754188 -0.000559
f 25/26/25 28/27/28 27/28/27
vt 0.739242 0.998072
f 27/28/27 28/27/28 30/29/30
vt 0.739236 -0.000559
f 27/28/27 30/29/30 29/30/29
vt 0.724290 0.998073
f 29/30/29 30/29/30 32/31/32
vt 0.724284 -0.000559
f 29/30/29 32/31/32 31/32/31
vt 0.709338 0.998073
f 31/32/31 32/31/32 34/33/34
vt 0.709332 -0.000558
f 31/32/31 34/33/34 33/34/33
vt 0.694386 0.998073
f 33/34/33 34/33/34 36/35/36
vt 0.694379 -0.000558
f 33/34/33 36/35/36 35/36/35
vt 0.679434 0.998074
f 35/36/35 36/35/36 38/37/38
vt 0.679427 -0.000558
f 35/36/35 38/37/38 37/38/37
vt 0.664483 0.998074
f 37/38/37 38/37/38 40/39/40
vt 0.664475 -0.000557
f 37/38/37 40/39/40 39/40/39
vt 0.649531 0.998075
f 39/40/39 40/39/40 42/41/42
vt 0.649523 -0.000557
f 39/40/39 42/41/42 41/42/41
vt 0.634579 0.998075
f 41/42/41 42/41/42 44/43/44
vt 0.634570 -0.000556
f 41/42/41 44/43/44 43/44/43
vt 0.619627 0.998076
f 43/44/43 44/43/44 46/45/46
vt 0.619618 -0.000556
f 43/44/43 46/45/46 45/46/45
vt 0.604675 0.998076
f 45/46/45 46/45/46 48/47/48
vt 0.604666 -0.000555
f 45/46/45 48/47/48 47/48/47
vt 0.589724 0.998077
f 47/48/47 48/47/48 50/49/50
vt 0.589714 -0.000555
f 47/48/47 50/49/50 49/50/49
vt 0.574772 0.998077
f 49/50/49 50/49/50 52/51/52
vt 0.574762 -0.000554
f 49/50/49 52/51/52 51/52/51
vt 0.559820 0.998078
f 51/52/51 52/51/52 54/53/54
vt 0.559809 -0.000554
f 51/52/51 54/53/54 53/54/53
vt 0.544868 0.998079
f 53/54/53 54/53/54 56/55/56
vt 0.544857 -0.000553
f 53/54/53 56/55/56 55/56/55
vt 0.529916 0.998079
f 55/56/55 56/55/56 58/57/58
vt 0.529905 -0.000552
f 55/56/55 58/57/58 57/58/57
vt 0.514965 0.998080
f 57/58/57 58/57/58 60/59/60
vt 0.514953 -0.000552
f 57/58/57 60/59/60 59/60/59
vt 0.500013 0.998081
f 59/60/59 60/59/60 62/61/62
vt 0.500001 -0.000551
f 59/60/59 62/61/62 61/62/61
vt 0.485061 0.998081
f 61/62/61 62/61/62 64/63/64
vt 0.485048 -0.000550
f 61/62/61 64/63/64 63/64/63
vt 0.470109 0.998082
f 63/64/63 64/63/64 66/65/66
vt 0.470096 -0.000550
f 63/64/63 66/65/66 65/66/65
vt 0.455157 0.998083
f 65/66/65 66/65/66 68/67/68
vt 0.455144 -0.000549
f 65/66/65 68/67/68 67/68/67
vt 0.440206 0.998084
f 67/68/67 68/67/68 70/69/70
vt 0.440192 -0.000548
f 67/68/67 70/69/70 69/70/69
vt 0.425254 0.998084
f 69/70/69 70/69/70 72/71/72
vt 0.425239 -0.000547
f 69/70/69 72/71/72 71/72/71
vt 0.410302 0.998085
f 71/72/71 72/71/72 74/73/74
vt 0.410287 -0.000546
f 71/72/71 74/73/74 73/74/73
vt 0.395350 0.998086
f 73/74/73 74/73/74 76/75/76
vt 0.395335 -0.000546
f 73/74/73 76/75/76 75/76/75
vt 0.380398 0.998087
f 75/76/75 76/75/76 78/77/78
vt 0.380383 -0.000545
f 75/76/75 78/77/78 77/78/77
vt 0.365447 0.998088
f 77/78/77 78/77/78 80/79/80
vt 0.365431 -0.000544
f 77/78/77 80/79/80 79/80/79
vt 0.350495 0.998089
f 79/80/79 80/79/80 82/81/82
vt 0.350478 -0.000543
f 79/80/79 82/81/82 81/82/81
vt 0.335543 0.998090
f 81/82/81 82/81/82 84/83/84
vt 0.335526 -0.000542
f 81/82/81 84/83/84 83/84/83
vt 0.320591 0.998091
f 83/84/83 84/83/84 86/85/86
vt 0.320574 -0.000541
f 83/84/83 86/85/86 85/86/85
vt 0.305639 0.998092
f 85/86/85 86/85/86 88/87/88
vt 0.305622 -0.000540
f 85/86/85 88/87/88 87/88/87
vt 0.290688 0.998093
f 87/88/87 88/87/88 90/89/90
vt 0.290669 -0.000539
f 87/88/87 90/89/90 89/90/89
vt 0.275736 0.998094
f 89/90/89 90/89/90 92/91/92
vt 0.275717 -0.000538
f 89/90/89 92/91/92 91/92/91
vt 0.260784 0.998095
f 91/92/91 92/91/92 94/93/94
vt 0.260765 -0.000537
f 91/92/91 94/93/94 93/94/93
vt 0.245832 0.998096
f 93/94/93 94/93/94 96/95/96
vt 0.245813 -0.000536
f 93/94/93 96/95/96 95/96/95
vt 0.230880 0.998097
f 95/96/95 96/95/96 98/97/98
vt 0.230860 -0.000535
f 95/96/95 98/97/98 97/98/97
vt 0.215928 0.998098
f 97/98/97 98/97/98 100/99/100
vt 0.215908 -0.000533
f 97/98/97 100/99/100 99/100/99
vt 0.200977 0.998100
f 99/100/99 100/99/100 102/101/102
vt 0.200956 -0.000532
f 99/100/99 102/101/102 101/102/101
vt 0.186025 0.998101
f 101/102/101 102/101/102 104/103/104
vt 0.186004 -0.000531
f 101/102/101 104/103/104 103/104/103
vt 0.171073 0.998102
f 103/104/103 104/103/104 106/105/106
vt 0.171051 -0.000530
f 103/104/103 106/105/106 105/106/105
vt 0.156121 0.998103
f 105/106/105 106/105/106 108/107/108
vt 0.156099 -0.000529
f 105/106/105 108/107/108 107/108/107
vt 0.141169 0.998105
f 107/108/107 108/107/108 110/109/110
vt 0.141147 -0.000527
f 107/108/107 110/109/110 109/110/109
vt 0.126217 0.998106
f 109/110/109 110/109/110 112/111/112
vt 0.126195 -0.000526
f 109/110/109 112/111/112 111/112/111
vt 0.111266 0.998107
f 111/112/111 112/111/112 114/113/114
vt 0.111243 -0.000525
f 111/112/111 114/113/114 113/114/113
vt 0.096314 0.998109
f 113/114/113 114/113/114 116/115/116
vt 0.096290 -0.000523
f 113/114/113 116/115/116 115/116/115
vt 0.081362 0.998110
f 115/116/115 116/115/116 118/117/118
vt 0.081338 -0.000522
f 115/116/115 118/117/118 117/118/117
vt 0.066410 0.998111
f 117/118/117 118/117/118 120/119/120
vt 0.066386 -0.000521
f 117/118/117 120/119/120 119/120/119
vt 0.051458 0.998113
f 119/120/119 120/119/120 2/121/2
vt 0.051433 -0.000519
f 119/120/119 2/121/2 1/122/1
# 120 faces, 122 coords texture

# End of File